# using instance instanzen/Instanz32.inst
time	power

0	4.19667008E8
1	4.02325344E8
2	3.73321056E8
3	3.6839472E8
4	3.65939008E8
5	3.65404416E8
6	3.61798688E8
7	3.61282304E8
8	3.59838464E8
9	3.58050112E8
10	3.56698144E8
11	3.56001536E8
12	3.55159424E8
13	3.54987456E8
14	3.54683584E8
15	3.53050176E8
16	3.51595776E8
17	3.51395392E8
19	3.50270848E8
20	3.479872E8
21	3.46428512E8
22	3.44234368E8
23	3.41418304E8
24	3.38767776E8
25	3.3800864E8
26	3.36982272E8
27	3.36116448E8
28	3.35631008E8
29	3.34207584E8
30	3.34207584E8
31	3.3346656E8
32	3.32545216E8
34	3.30426528E8
35	3.2998704E8
36	3.29673696E8
37	3.28824384E8
38	3.28555456E8
47	3.27568704E8
48	3.27230048E8
49	3.2692672E8
50	3.26749888E8
51	3.26516448E8
52	3.26338944E8
53	3.26212608E8
54	3.2563584E8
56	3.24952384E8
57	3.24860576E8
58	3.24316128E8
59	3.24159616E8
60	3.2364592E8
61	3.23185184E8
62	3.23144672E8
63	3.22526016E8
64	3.223608E8
66	3.2188256E8
67	3.2136288E8
68	3.20697376E8
69	3.20250464E8
70	3.20172704E8
71	3.19738848E8
73	3.19056736E8
74	3.18493152E8
75	3.181856E8
76	3.18006336E8
77	3.17673312E8
78	3.17673312E8
79	3.17373376E8
80	3.16757824E8
81	3.16036736E8
82	3.15735072E8
84	3.15406112E8
85	3.1520656E8
86	3.15189792E8
87	3.15173536E8
88	3.14898784E8
89	3.14614464E8
90	3.14479776E8
92	3.14237312E8
93	3.14207648E8
94	3.1402608E8
95	3.14024128E8
96	3.13901856E8
97	3.13784992E8
98	3.13784992E8
99	3.13547808E8
100	3.13547808E8
101	3.1331872E8
102	3.132232E8
103	3.13094176E8
104	3.12964224E8
105	3.12786752E8
106	3.12620736E8
107	3.12508352E8
109	3.12272864E8
110	3.12077632E8
111	3.11901888E8
112	3.11812768E8
113	3.11812768E8
114	3.11812224E8
115	3.11696224E8
116	3.11518976E8
117	3.11458656E8
118	3.1139728E8
120	3.11227264E8
121	3.11192512E8
122	3.11092096E8
123	3.11092096E8
124	3.10948512E8
125	3.108248E8
126	3.10622752E8
127	3.10549184E8
129	3.10544416E8
130	3.10534848E8
132	3.10154528E8
136	3.10121344E8
140	3.10121344E8
142	3.0985664E8
143	3.09549472E8
144	3.09406176E8
145	3.0904368E8
146	3.08783296E8
148	3.08783296E8
152	3.08694208E8
154	3.08570272E8
155	3.0853904E8
157	3.0837072E8
158	3.0837072E8
160	3.0836016E8
161	3.0836016E8
162	3.08261248E8
164	3.08180512E8
165	3.08180512E8
166	3.08020512E8
170	3.07994816E8
171	3.07973344E8
172	3.07972256E8
173	3.07951776E8
175	3.0777664E8
177	3.07725248E8
178	3.07712544E8
179	3.07684352E8
180	3.07673984E8
182	3.07673984E8
183	3.07645536E8
185	3.07590336E8
186	3.07590336E8
187	3.07521792E8
188	3.07521792E8
190	3.07504864E8
191	3.07504864E8
192	3.07494176E8
193	3.07464608E8
194	3.07435008E8
196	3.07435008E8
197	3.07426496E8
198	3.07415392E8
199	3.07264192E8
202	3.07264192E8
203	3.07248224E8
205	3.07132256E8
206	3.07132256E8
207	3.07127136E8
208	3.07127136E8
209	3.07127136E8
210	3.0707904E8
213	3.0707904E8
215	3.0707904E8
216	3.06884256E8
217	3.0682752E8
225	3.066752E8
229	3.0664384E8
230	3.06622912E8
231	3.06622912E8
232	3.06497248E8
234	3.06468992E8
237	3.0645856E8
240	3.06349664E8
241	3.06211584E8
242	3.06118528E8
244	3.06086432E8
245	3.06086432E8
246	3.06077984E8
247	3.06076064E8
248	3.0607008E8
249	3.06042752E8
251	3.06042752E8
253	3.0601744E8
254	3.05972896E8
255	3.05829312E8
256	3.05769632E8
258	3.05769632E8
260	3.05763296E8
261	3.05709088E8
263	3.05709088E8
264	3.05709088E8
265	3.056224E8
267	3.05572128E8
268	3.05414816E8
269	3.05403712E8
271	3.05382912E8
273	3.05382912E8
274	3.05382912E8
278	3.05320288E8
279	3.0521312E8
280	3.05150144E8
291	3.05060352E8
293	3.05060352E8
294	3.05018336E8
308	3.0498928E8
309	3.04907232E8
312	3.04893408E8
316	3.04850976E8
318	3.04850976E8
319	3.04850976E8
320	3.04826144E8
357	3.04803136E8
359	3.04803136E8
361	3.04746976E8
363	3.04712928E8
364	3.046416E8
370	3.04573536E8
371	3.04562016E8
372	3.0451456E8
375	3.04508768E8
377	3.0445136E8
378	3.0445136E8
379	3.0445136E8
380	3.04339552E8
381	3.04334464E8
383	3.04326144E8
385	3.04148864E8
387	3.04148864E8
388	3.04079936E8
389	3.04071008E8
391	3.04010368E8
393	3.03997088E8
394	3.0396752E8
399	3.0395712E8
401	3.0395712E8
406	3.03926304E8
411	3.0392048E8
412	3.03789216E8
414	3.03789216E8
420	3.03585664E8
424	3.03585664E8
425	3.0347648E8
426	3.03440224E8
437	3.03440224E8
447	3.03430016E8
448	3.03429984E8
451	3.03378272E8
452	3.03342016E8
453	3.03342016E8
454	3.03339744E8
474	3.03323488E8
478	3.03274048E8
480	3.0326384E8
481	3.0326384E8
484	3.03180384E8
489	3.03078432E8
491	3.03062368E8
492	3.03033632E8
493	3.0297488E8
494	3.02924896E8
496	3.02905312E8
497	3.02893696E8
498	3.0284608E8
501	3.02822208E8
502	3.02822208E8
504	3.02788736E8
505	3.02716672E8
506	3.02610912E8
508	3.025736E8
509	3.0256448E8
513	3.0256448E8
514	3.0256448E8
515	3.0244832E8
516	3.02332832E8
518	3.02274688E8
519	3.02185632E8
520	3.0212544E8
521	3.02114112E8
522	3.02112064E8
523	3.02092608E8
525	3.02092608E8
526	3.02004352E8
527	3.01949472E8
528	3.01937696E8
529	3.01937696E8
531	3.01935744E8
532	3.01884064E8
533	3.01884064E8
534	3.01884064E8
535	3.01844352E8
536	3.0180672E8
537	3.0179776E8
538	3.0179776E8
540	3.01770112E8
541	3.01764096E8
548	3.01740512E8
550	3.01740512E8
551	3.0162048E8
553	3.0159808E8
556	3.0159808E8
559	3.01571328E8
562	3.01551616E8
567	3.01473088E8
573	3.0143456E8
575	3.01382592E8
582	3.01360896E8
584	3.01360896E8
585	3.01360896E8
586	3.01360896E8
588	3.01360896E8
589	3.01360896E8
590	3.01360896E8
591	3.01360896E8
592	3.01360896E8
593	3.01360896E8
595	3.01360896E8
596	3.01360896E8
598	3.01360896E8
599	3.01360896E8
600	3.01360896E8
606	3.01360896E8
613	3.01360896E8
614	3.01360896E8
618	3.01360896E8
619	3.01360896E8
626	3.01360896E8
628	3.01360896E8
629	3.01360896E8
630	3.01360896E8
638	3.01360896E8
640	3.01360896E8
643	3.01360896E8
644	3.01360896E8
648	3.01360896E8
650	3.01360896E8
651	3.01360896E8
658	3.01360896E8
660	3.01360896E8
661	3.01360896E8
663	3.01360896E8
665	3.01360896E8
666	3.01360896E8
667	3.01360896E8
670	3.01360896E8
672	3.01360896E8
709	3.01360896E8
716	3.01360896E8
717	3.01360896E8
718	3.01360896E8
719	3.01360896E8
723	3.01360896E8
724	3.01360896E8
733	3.01360896E8
750	3.01360896E8
756	3.01360896E8
757	3.01360896E8
758	3.01360896E8
791	3.01360896E8
793	3.01360896E8
795	3.01360896E8
798	3.01360896E8
799	3.01360896E8
802	3.01360896E8
807	3.01360896E8
810	3.01360896E8
813	3.01189632E8
837	3.01174208E8
898	3.01174208E8
901	3.01174208E8
911	3.01174208E8
914	3.01159712E8
917	3.01157824E8
918	3.01153344E8
922	3.01153344E8
925	3.01149824E8
927	3.0101984E8
929	3.0101984E8
996	3.0101984E8
1001	3.01004384E8
1004	3.01004384E8
1012	3.01004384E8
1013	3.00993408E8
1015	3.00992064E8
1019	3.009328E8
1080	3.009328E8
1086	3.0091968E8
1128	3.0088464E8
1134	3.0088464E8
1194	3.0088464E8
1205	3.00883584E8
