# using instance instanzen/Instanz31.inst
time	power

0	2.82326208E8
1	2.82326208E8
2	2.82078464E8
3	2.81444448E8
4	2.8042096E8
5	2.79753376E8
6	2.79412928E8
8	2.79365024E8
9	2.79106752E8
10	2.78786272E8
11	2.78637184E8
