# using instance instanzen/Instanz32.inst
flexibility	initial	after 10s	after 20s	after 40s	after 60s	after 2m	after 3.5m	after 5m	after 7.5m	after 10m	after 15min	after 20min

10	297831680.000000	297831776.000000	297831776.000000	297831776.000000	297831776.000000	297831776.000000	297831776.000000	297831776.000000	297831776.000000	297831776.000000	297831776.000000	297831776.000000
30	297831680.000000	297831776.000000	297831776.000000	297831776.000000	297831776.000000	297831776.000000	297831776.000000	297831776.000000	297831776.000000	297831776.000000	297831776.000000	297831776.000000
100	297831680.000000	297831776.000000	297831776.000000	297831776.000000	297831776.000000	297831776.000000	297831776.000000	297831776.000000	297831776.000000	297831776.000000	297831776.000000	297831776.000000
300	297831680.000000	297831776.000000	297831776.000000	297831776.000000	297831776.000000	297831776.000000	297831776.000000	297831776.000000	297831776.000000	297831776.000000	297831776.000000	297831776.000000
1000	297831680.000000	297831776.000000	297831776.000000	297831776.000000	297831776.000000	297831776.000000	297831776.000000	297831776.000000	297831776.000000	297831776.000000	297831776.000000	297831776.000000
3000	297831680.000000	297831776.000000	297831776.000000	297831776.000000	297831776.000000	297831776.000000	297831776.000000	297831776.000000	297831776.000000	297831776.000000	297831776.000000	297831776.000000
10000	297831680.000000	297831776.000000	297831776.000000	297831776.000000	297831776.000000	297831776.000000	297831776.000000	297831776.000000	297831776.000000	297831776.000000	297831776.000000	297831776.000000
30000	297831680.000000	297831776.000000	297831776.000000	297831776.000000	297831776.000000	297831776.000000	297831776.000000	297831776.000000	297831776.000000	297831776.000000	297831776.000000	297831776.000000
100000	297831680.000000	297439104.000000	297302688.000000	297057088.000000	297057088.000000	297057088.000000	297057088.000000	297047200.000000	297047200.000000	297047200.000000	297047200.000000	297047200.000000
300000	297831680.000000	297517152.000000	297292384.000000	297100352.000000	297100352.000000	297100352.000000	297100352.000000	297100352.000000	297100352.000000	297100352.000000	297100352.000000	297100352.000000
1000000	297831680.000000	297831776.000000	297831776.000000	297831776.000000	297831776.000000	297831776.000000	297831776.000000	297831776.000000	297831776.000000	297831776.000000	297831776.000000	297831776.000000
3000000	297831680.000000	297507296.000000	297200160.000000	296836480.000000	296820000.000000	296820000.000000	296820000.000000	296820000.000000	296820000.000000	296820000.000000	296820000.000000	296820000.000000
10000000	297831680.000000	297480256.000000	297079616.000000	296938720.000000	296938720.000000	296938720.000000	296938720.000000	296938720.000000	296938720.000000	296938720.000000	296938720.000000	296938720.000000
30000000	297831680.000000	297831776.000000	297831776.000000	297831776.000000	297831776.000000	297831776.000000	297831776.000000	297831776.000000	297831776.000000	297831776.000000	297831776.000000	297831776.000000
100000000	297831680.000000	297831776.000000	297831776.000000	297831776.000000	297831776.000000	297831776.000000	297831776.000000	297831776.000000	297831776.000000	297831776.000000	297831776.000000	297831776.000000
300000000	297831680.000000	297573696.000000	297350432.000000	297002464.000000	296858336.000000	296378432.000000	296378432.000000	296378432.000000	296378432.000000	296378432.000000	296378432.000000	296378432.000000
1000000000	297831680.000000	297471424.000000	297215936.000000	296871232.000000	296719008.000000	296671840.000000	296671840.000000	296668288.000000	296668288.000000	296668288.000000	296668288.000000	296668288.000000
3000000000	297831680.000000	297831776.000000	297612544.000000