# using instance instanzen/Instanz2-40.inst
flexibility	initial	after 10s	after 20s	after 40s	after 60s	after 2m	after 3.5m	after 5m	after 7.5m	after 10m	after 15min	after 20min

10	463185408.000000	462129184.000000	462129184.000000	462129184.000000	462129184.000000	462129184.000000	462129184.000000	462129184.000000	462129184.000000	462129184.000000	462129184.000000	462129184.000000
30	463185408.000000	463180352.000000	463180352.000000	463180352.000000	463065568.000000	463065568.000000	463065568.000000	463065568.000000	463065568.000000	463065568.000000	463065568.000000	463065568.000000
100	463185408.000000	463180352.000000	463180352.000000	463180352.000000	463065568.000000	463065568.000000	463065568.000000	463065568.000000	463065568.000000	463065568.000000	463065568.000000	463065568.000000
300	463185408.000000	463180352.000000	463180352.000000	463180352.000000	463065568.000000	463065568.000000	463065568.000000	463065568.000000	463065568.000000	463065568.000000	463065568.000000	463065568.000000
1000	463185408.000000	463180352.000000	463180352.000000	463180352.000000	463065568.000000	463065568.000000	463065568.000000	463065568.000000	463065568.000000	463065568.000000	463065568.000000	463065568.000000
3000	463185408.000000	463180352.000000	463180352.000000	463180352.000000	463065568.000000	463065568.000000	463065568.000000	463065568.000000	463065568.000000	463065568.000000	463065568.000000	463065568.000000
10000	463185408.000000	463180352.000000	463180352.000000	463065568.000000	463065568.000000	463065568.000000	463065568.000000	463065568.000000	463065568.000000	463065568.000000	462933664.000000	462933664.000000
30000	463185408.000000	463180352.000000	463180352.000000	463065568.000000	463065568.000000	463065568.000000	463065568.000000	463065568.000000	463065568.000000	463065568.000000	462933664.000000	462933664.000000
100000	463185408.000000	463180352.000000	463180352.000000	463065568.000000	463065568.000000	463065568.000000	463065568.000000	463065568.000000	463065568.000000	462933664.000000	462933664.000000	462933664.000000
300000	463185408.000000	463180352.000000	463180352.000000	463065568.000000	463065568.000000	463065568.000000	463065568.000000	463065568.000000	463065568.000000	462933664.000000	462933664.000000	462933664.000000
1000000	463185408.000000	463177440.000000	463177440.000000	463177440.000000	462846784.000000	462846784.000000	462846784.000000	462846784.000000	462846784.000000	462846784.000000	462846784.000000	462846784.000000
3000000	463185408.000000	463015552.000000	462930912.000000	462034016.000000	462034016.000000	462034016.000000	462034016.000000	462034016.000000	462034016.000000	462034016.000000	462034016.000000	462034016.000000
10000000	463185408.000000	462218304.000000	458281184.000000	458075296.000000	457318240.000000	456470400.000000	456470400.000000	456470400.000000	456470400.000000	456470400.000000	456470400.000000	456470400.000000
30000000	463185408.000000	463015552.000000	461178944.000000	460792608.000000	460792608.000000	460792608.000000	460792608.000000	460792608.000000	460792608.000000	460792608.000000	460792608.000000	460792608.000000
100000000	463185408.000000	462245888.000000	461559808.000000	456746304.000000	456002080.000000	456002080.000000	456002080.000000	456002080.000000	456002080.000000	456002080.000000	456002080.000000	456002080.000000
300000000	463185408.000000	462235008.000000	461091776.000000	460521824.000000	457531168.000000	457531168.000000	457531168.000000	457531168.000000	457531168.000000	457531168.000000	457531168.000000	457531168.000000
1000000000	463185408.000000	461616672.000000	459894656.000000	459509856.000000	459243072.000000	459243072.000000	459243072.000000	459243072.000000	459243072.000000	459243072.000000	459243072.000000	459243072.000000
3000000000	463185408.000000	461744672.000000	461559136.000000	460679168.000000	460678528.000000	460678528.000000	460678528.000000	460678528.000000	460678528.000000	460678528.000000	460678528.000000	460678528.000000
10000000000	463185408.000000	462129184.000000	462039232.000000	462039232.000000	462039232.000000	462039232.000000	462039232.000000	462039232.000000	462039232.000000	462039232.000000	462039232.000000	462039232.000000
30000000000	463185408.000000	462417920.000000	462120928.000000	461927456.000000	461927456.000000	461927456.000000	461927456.000000	461927456.000000	461927456.000000	461927456.000000	461927456.000000	461927456.000000
100000000000	463185408.000000	462417920.000000	462120928.000000	461124864.000000	460387520.000000	458668288.000000	458668288.000000	458668288.000000	458668288.000000	458668288.000000	458668288.000000	458668288.000000
300000000000	463185408.000000	462129184.000000	462129184.000000	457457088.000000	455252832.000000	454163232.000000	454163232.000000	454163232.000000	454163232.000000	454163232.000000	454163232.000000	454163232.000000
1000000000000	463185408.000000	461303872.000000	454757504.000000	450705888.000000	449677056.000000	448567200.000000	442021120.000000	442021120.000000	442021120.000000	442021120.000000	442021120.000000	442021120.000000
3000000000000	463185408.000000	462990080.000000	460989696.000000	457283616.000000	456252832.000000	444797472.000000	444797472.000000	444797472.000000	444797472.000000	444797472.000000	444797472.000000	444797472.000000
10000000000000	463185408.000000	462990080.000000	455736800.000000	452349920.000000	451537824.000000	451191232.000000	451191232.000000	451191232.000000	451191232.000000	451191232.000000	451191232.000000	451191232.000000
30000000000000	463185408.000000	463015552.000000	457219456.000000	449252096.000000	445409088.000000	444904224.000000	444904224.000000	444904224.000000	444904224.000000	444904224.000000	444904224.000000	444904224.000000
100000000000000	463185408.000000	463015552.000000	458022944.000000	446568256.000000	444412096.000000	440387168.000000	437706816.000000	437706816.000000	437706816.000000	437706816.000000	437706816.000000	437706816.000000
300000000000000	463185408.000000	463015552.000000	462373792.000000	460997664.000000	460587168.000000	449028032.000000	439909696.000000	439909696.000000	439909696.000000	439909696.000000	439909696.000000	439909696.000000
1000000000000000	463185408.000000	463177440.000000	456941600.000000	445636896.000000	440905088.000000	439169088.000000	439169088.000000	439169088.000000	439169088.000000	439169088.000000	439169088.000000	439169088.000000
3000000000000000	463185408.000000	463177440.000000	462407776.000000	457026624.000000	453476928.000000	448914336.000000	441871264.000000	441066592.000000	441065120.000000	441065120.000000	441065120.000000	441065120.000000
10000000000000000	463185408.000000	463180352.000000	462407776.000000	461906880.000000	456824160.000000	453270304.000000	453270304.000000	453270304.000000	453270304.000000	453270304.000000	453270304.000000	453270304.000000
30000000000000000	463185408.000000	462819008.000000	461571712.000000	455843456.000000	450920096.000000	443934240.000000	441093088.000000	437502560.000000	437502560.000000	437502560.000000	437502560.000000	437502560.000000
100000000000000000	463185408.000000	461720160.000000	454909088.000000	451224000.000000	450387232.000000	438827168.000000	433406976.000000	432663936.000000	432663936.000000	432663936.000000	432663936.000000	432663936.000000
300000000000000000	463185408.000000	462616672.000000	456590144.000000	443742240.000000	438360576.000000	437368832.000000	429218272.000000	423246304.000000	423232256.000000	423232256.000000	423232256.000000	423232256.000000
1000000000000000000	463185408.000000	463159584.000000	457571072.000000	451360608.000000	449164064.000000	447429824.000000	441764448.000000	439276544.000000	439276544.000000	439276544.000000	439276544.000000	439276544.000000
3000000000000000000	463185408.000000	463159584.000000	459977920.000000	452763584.000000	449718400.000000	435512864.000000	433586784.000000	433586784.000000	433586784.000000	433586784.000000	433586784.000000	433586784.000000
10000000000000000000	463185408.000000	463159584.000000	461323008.000000	455519456.000000	451614880.000000	442477312.000000	435976416.000000	429243616.000000	426727168.000000	426727168.000000	426727168.000000	426727168.000000
30000000000000000000	463185408.000000	463180352.000000	462181728.000000	454331328.000000	444532096.000000	438302432.000000	432034432.000000	427016896.000000	426750528.000000	426750528.000000	426750528.000000	426750528.000000
100000000000000000000	463185408.000000	463180352.000000	462181728.000000	456381024.000000	450131904.000000	440964000.000000	431829536.000000	431352192.000000	426902560.000000	426902560.000000	426902560.000000	426902560.000000
300000000000000000000	463185408.000000	463180352.000000	463180352.000000	459077376.000000	455849984.000000	442556608.000000	441415840.000000	432574368.000000	428222656.000000	426897792.000000	425971488.000000	425971488.000000
1000000000000000000000	463185408.000000	460448672.000000	458582144.000000	454206880.000000	448767808.000000	442623328.000000	434569952.000000	426123040.000000	422836384.000000	421982624.000000	418823040.000000	418011712.000000
3000000000000000000000	463185408.000000	460448672.000000	453303488.000000	449252288.000000	446902816.000000	440552768.000000	431747040.000000	427008064.000000	423896576.000000	422162048.000000	421655872.000000	421655872.000000
10000000000000000000000	463185408.000000	460448672.000000	458655584.000000	453752544.000000	449507616.000000	439796896.000000	436935520.000000	435420224.000000	428313504.000000	424412288.000000	424412288.000000	424412288.000000
30000000000000000000000	463185408.000000	460448672.000000	458655584.000000	453552512.000000	444783232.000000	440249824.000000	437606208.000000	436494112.000000	431403392.000000	427131712.000000	425783808.000000	425783808.000000
100000000000000000000000	463185408.000000	460448672.000000	458655584.000000	456761280.000000	453774752.000000	439505152.000000	430349344.000000	427439232.000000	420914592.000000	417287872.000000	417195904.000000	417195904.000000
300000000000000000000000	463185408.000000	461515744.000000	456473312.000000	451677088.000000	448165088.000000	442232224.000000	434344896.000000	429668544.000000	418518944.000000	417595808.000000	413885536.000000	411540736.000000
1000000000000000000000000	463185408.000000	461515744.000000	456473312.000000	449411168.000000	443268576.000000	438664928.000000	430309856.000000	427439840.000000	422879424.000000	422879424.000000	422879424.000000	422879424.000000
3000000000000000000000000	463185408.000000	461515744.000000	456473312.000000	450347264.000000	447472448.000000	440186272.000000	431914336.000000	425751168.000000	417609312.000000	416432800.000000	413480896.000000	413456576.000000
10000000000000000000000000	463185408.000000	460911584.000000	460742112.000000	459196416.000000	458261536.000000	451100576.000000	444015712.000000	439946432.000000	434048768.000000	428642816.000000	416429984.000000	408135968.000000
30000000000000000000000000	463185408.000000	460911584.000000	460907424.000000	460058656.000000	451437472.000000	444138144.000000	431677088.000000	427351232.000000	426279168.000000	424797088.000000	420433248.000000	413383712.000000
100000000000000000000000000	463185408.000000	460911584.000000	460907424.000000	460058656.000000	449701632.000000	448493760.000000	439191456.000000	432844256.000000	422928448.000000	419189696.000000	412789888.000000	412397472.000000
300000000000000000000000000	463185408.000000	463185664.000000	460907424.000000	460058656.000000	454557440.000000	444070400.000000	441862432.000000	436239360.000000	425802784.000000	420088960.000000	416299424.000000	415284608.000000
1000000000000000000000000000	463185408.000000	463185664.000000	460911584.000000	460740384.000000	449581408.000000	443629984.000000	438460160.000000	433985440.000000	425615328.000000	421416928.000000	416308320.000000	413019968.000000
3000000000000000000000000000	463185408.000000	463185664.000000	460907424.000000	459396640.000000	449581408.000000	441326144.000000	432767264.000000	431661888.000000	425810912.000000	424655232.000000	421502592.000000	415710304.000000
10000000000000000000000000000	463185408.000000	463185664.000000	460907424.000000	459500800.000000	447898368.000000	443198496.000000	431116256.000000	429106336.000000	424291456.000000	422071712.000000	415066528.000000	411280672.000000
30000000000000000000000000000	463185408.000000	463185664.000000	460907424.000000	459500800.000000	450289152.000000	445043968.000000	440711200.000000	431013984.000000	425729472.000000	422546912.000000	418183904.000000	411726720.000000
100000000000000000000000000000	463185408.000000	463185664.000000	460907424.000000	453346880.000000	447572768.000000	444017280.000000	431205184.000000	428265216.000000	423584960.000000	417294176.000000	416664896.000000	416664896.000000
300000000000000000000000000000	463185408.000000	463185664.000000	460907424.000000	453346880.000000	449641600.000000	445177696.000000	435445792.000000	433424800.000000	429098496.000000	425103936.000000	418410112.000000	412000192.000000
1000000000000000000000000000000	463185408.000000	463185664.000000	460907424.000000	449941472.000000	447393056.000000	445939136.000000	436600704.000000	432940736.000000	427914464.000000	420412864.000000	413196000.000000	410183808.000000
3000000000000000000000000000000	463185408.000000	463185664.000000	460907424.000000	449941472.000000	447393056.000000	441263200.000000	439239424.000000	435906592.000000	430610528.000000	427980800.000000	418838752.000000	415912800.000000
10000000000000000000000000000000	463185408.000000	463185664.000000	460907424.000000	459352832.000000	449266016.000000	440696544.000000	435187040.000000	431083104.000000	427579680.000000	425329408.000000	418260832.000000	416593952.000000
30000000000000000000000000000000	463185408.000000	463185664.000000	460907424.000000	459352832.000000	448660864.000000	444384992.000000	439224672.000000	437418656.000000	432346240.000000	429680800.000000	424990592.000000	423135744.000000
100000000000000000000000000000000	463185408.000000	463185664.000000	460907424.000000	459352832.000000	451940192.000000	443234464.000000	436107808.000000	429739680.000000	426769792.000000	424087680.000000	420459584.000000	415186176.000000
300000000000000000000000000000000	463185408.000000	463185664.000000	463185664.000000	460302432.000000	459695776.000000	452589472.000000	441794688.000000	435652608.000000	432432288.000000	427391712.000000	416393952.000000	409824320.000000
1000000000000000000000000000000000	463185408.000000	463027328.000000	462510304.000000	457411744.000000	450489376.000000	448217792.000000	443399968.000000	440445632.000000	434173792.000000	428758848.000000	424763040.000000	421454912.000000
3000000000000000000000000000000000	463185408.000000	463027328.000000	460721376.000000	450341696.000000	448073824.000000	438682208.000000	433544064.000000	431763744.000000	428245856.000000	427070016.000000	424480320.000000	417936416.000000
10000000000000000000000000000000000	463185408.000000	463126624.000000	460721376.000000	454793024.000000	450884992.000000	448733952.000000	440514912.000000	436164448.000000	431490880.000000	429100736.000000	421376544.000000	417142432.000000
30000000000000000000000000000000000	463185408.000000	463126624.000000	460721376.000000	453010624.000000	449690432.000000	444052032.000000	442056736.000000	437679584.000000	431514656.000000	428605536.000000	424167488.000000	418616160.000000
100000000000000000000000000000000000	463185408.000000	463185664.000000	460485952.000000	457879616.000000	453838336.000000	448897728.000000	445817152.000000	440555808.000000	437067456.000000	430915072.000000	419860224.000000	415745184.000000
300000000000000000000000000000000000	463185408.000000	463185664.000000	460485952.000000	454839776.000000	453121024.000000	447594464.000000	444297216.000000	440874624.000000	435416256.000000	433181408.000000	425602080.000000	418268800.000000
1000000000000000000000000000000000000	463185408.000000	463185664.000000	460485952.000000	456102464.000000	454953280.000000	452851456.000000	451383168.000000	449290752.000000	438798176.000000	431792928.000000	422732672.000000	415113056.000000
3000000000000000000000000000000000000	463185408.000000	463185664.000000	460485952.000000	459320192.000000	454622720.000000	450534528.000000	440206944.000000	436448288.000000	431192992.000000	429725056.000000	420006784.000000	414950432.000000
10000000000000000000000000000000000000	463185408.000000	463185664.000000	460485952.000000	459320192.000000	454622720.000000	452285408.000000	447895040.000000	435603136.000000	431995104.000000	428026848.000000	417621024.000000	413534336.000000
30000000000000000000000000000000000000	463185408.000000	463185664.000000	461919584.000000	457465824.000000	450707584.000000	447973568.000000	442302016.000000	440160544.000000	435066688.000000	431867840.000000	424807360.000000	420108032.000000
100000000000000000000000000000000000000	463185408.000000	463185664.000000	460587296.000000	456790144.000000	453779968.000000	447790560.000000	444200480.000000	442131392.000000	434519296.000000	429723968.000000	419159712.000000	416614336.000000
300000000000000000000000000000000000000	463185408.000000	463185664.000000	458766528.000000	457391328.000000	454402592.000000	452833856.000000	451098368.000000	443877664.000000	435569152.000000	433669760.000000	426639616.000000	416860544.000000
1000000000000000000000000000000000000000	463185408.000000	463185664.000000	458766528.000000	457391328.000000	453895648.000000	452174656.000000	448138528.000000	441641984.000000	438039552.000000	433778688.000000	426370240.000000	421371648.000000
3000000000000000000000000000000000000000	463185408.000000	463185664.000000	458766528.000000	457391328.000000	453895648.000000	452174656.000000	448138528.000000	441641984.000000	436844224.000000	433528320.000000	425656192.000000	421098720.000000
10000000000000000000000000000000000000000	463185408.000000	463185664.000000	458766528.000000	457391328.000000	453895648.000000	452174656.000000	448138528.000000	441893408.000000	434415136.000000	429647392.000000	423805728.000000	417955968.000000
30000000000000000000000000000000000000000	463185408.000000	463185664.000000	458766528.000000	457391328.000000	453895648.000000	452174656.000000	448138528.000000	444728128.000000	436189632.000000	432657920.000000	426125792.000000	421949184.000000
100000000000000000000000000000000000000000	463185408.000000	463185664.000000	458766528.000000	457391328.000000	453895648.000000	452174656.000000	448406496.000000	439949408.000000	432820896.000000	427769568.000000	425513984.000000	424051424.000000
300000000000000000000000000000000000000000	463185408.000000	463185664.000000	457983648.000000	455332128.000000	452752736.000000	449363648.000000	444867776.000000	434771040.000000	430561312.000000	426592000.000000	424312192.000000	416608064.000000
1000000000000000000000000000000000000000000	463185408.000000	463185664.000000	457983648.000000	455332128.000000	452752736.000000	449363648.000000	444736448.000000	439060768.000000	433298688.000000	429794016.000000	424494432.000000	421887264.000000
3000000000000000000000000000000000000000000	463185408.000000	463185664.000000	462315104.000000	455823392.000000	451936704.000000	449658272.000000	448350464.000000	447915936.000000	444413024.000000	437601088.000000	429468928.000000	426061984.000000
10000000000000000000000000000000000000000000	463185408.000000	463185664.000000	462315104.000000	455823392.000000	451936704.000000	449658272.000000	448350464.000000	447898656.000000	440695968.000000	433109920.000000	425686976.000000	422859424.000000
30000000000000000000000000000000000000000000	463185408.000000	463185664.000000	462285760.000000	456848960.000000	451993216.000000	446566432.000000	442718816.000000	438923904.000000	430130592.000000	428082240.000000	422459968.000000	419660256.000000
100000000000000000000000000000000000000000000	463185408.000000	463185664.000000	463185664.000000	459630688.000000	457545280.000000	453640768.000000	451649856.000000	446341312.000000	440871872.000000	432998592.000000	424332960.000000	418403904.000000
300000000000000000000000000000000000000000000	463185408.000000	463185664.000000	463185664.000000	460569472.000000	456366784.000000	452238656.000000	445611712.000000	444090272.000000	437858656.000000	435688864.000000	427586176.000000	422755008.000000
1000000000000000000000000000000000000000000000	463185408.000000	463185664.000000	463185664.000000	459905312.000000	457660928.000000	449438080.000000	446322656.000000	441187808.000000	433068544.000000	425191104.000000	423538336.000000	416179072.000000
3000000000000000000000000000000000000000000000	463185408.000000	463185664.000000	463185664.000000	460703968.000000	455590368.000000	454025888.000000	450033312.000000	443667552.000000	435720096.000000	433200736.000000	429087904.000000	425544736.000000
10000000000000000000000000000000000000000000000	463185408.000000	463185664.000000	463185664.000000	460703968.000000	454304704.000000	450140864.000000	446153504.000000	437963584.000000	433579392.000000	430007520.000000	426426336.000000	422773152.000000
30000000000000000000000000000000000000000000000	463185408.000000	462108960.000000	459940832.000000	453462208.000000	448314688.000000	444001984.000000	441743968.000000	439511488.000000	434442880.000000	429059648.000000	420919936.000000	419377568.000000
100000000000000000000000000000000000000000000000	463185408.000000	462108960.000000	459940832.000000	453462208.000000	448648320.000000	445225376.000000	443032448.000000	440773440.000000	439018496.000000	433250080.000000	429051552.000000	425587744.000000
300000000000000000000000000000000000000000000000	463185408.000000	462108960.000000	459940832.000000	453462208.000000	448648320.000000	445225376.000000	443579872.000000	443017856.000000	433253696.000000	429436448.000000	423604704.000000	419272736.000000
1000000000000000000000000000000000000000000000000	463185408.000000	462108960.000000	459940832.000000	459071936.000000	453462208.000000	448314144.000000	443883072.000000	442878336.000000	436920576.000000	428181312.000000	419404128.000000	414623616.000000
3000000000000000000000000000000000000000000000000	463185408.000000	462108960.000000	459940832.000000	459071936.000000	453462208.000000	448314144.000000	445927936.000000	442460192.000000	437282880.000000	432346336.000000	427829568.000000	419997088.000000
10000000000000000000000000000000000000000000000000	463185408.000000	462108960.000000	459940832.000000	459071936.000000	453462208.000000	448314144.000000	445789600.000000	442303136.000000	436549344.000000	432922528.000000	427184352.000000	421634688.000000
30000000000000000000000000000000000000000000000000	463185408.000000	462108960.000000	459940832.000000	453462208.000000	445643904.000000	443800064.000000	439650560.000000	436226496.000000	430212064.000000	427540512.000000	422245280.000000	419925952.000000
100000000000000000000000000000000000000000000000000	463185408.000000	462108960.000000	459940832.000000	453462208.000000	445643904.000000	443789664.000000	437013696.000000	434762688.000000	430834784.000000	427137952.000000	422018912.000000	418149088.000000
300000000000000000000000000000000000000000000000000	463185408.000000	462108960.000000	459940832.000000	453462208.000000	445643904.000000	443560736.000000	439963040.000000	439015424.000000	432649088.000000	429434016.000000	423591776.000000	422161728.000000
1000000000000000000000000000000000000000000000000000	463185408.000000	462108960.000000	459940832.000000	453462208.000000	448829632.000000	447525632.000000	444113536.000000	443937088.000000	439860992.000000	437075808.000000	429953248.000000	423247872.000000
3000000000000000000000000000000000000000000000000000	463185408.000000	462693856.000000	459490208.000000	456724384.000000	453849056.000000	453500864.000000	448252704.000000	446377408.000000	441037504.000000	436599104.000000	424467072.000000	419695136.000000
10000000000000000000000000000000000000000000000000000	463185408.000000	462693856.000000	459490208.000000	456724384.000000	453849056.000000	453500864.000000	448252704.000000	446496000.000000	443641408.000000	433795360.000000	427002592.000000	423907072.000000
30000000000000000000000000000000000000000000000000000	463185408.000000	462693856.000000	459490208.000000	456724384.000000	453849056.000000	453500864.000000	449011168.000000	442073888.000000	439302144.000000	431836544.000000	420964032.000000	413304288.000000
100000000000000000000000000000000000000000000000000000	463185408.000000	462108960.000000	459940832.000000	459071936.000000	453319584.000000	446928128.000000	444373440.000000	441523264.000000	434694720.000000	428755808.000000	422400224.000000	417023040.000000
300000000000000000000000000000000000000000000000000000	463185408.000000	462108960.000000	459940832.000000	459071936.000000	453319584.000000	446791520.000000	440401632.000000	438950432.000000	432958496.000000	429559136.000000	418949664.000000	415239808.000000
1000000000000000000000000000000000000000000000000000000	463185408.000000	462108960.000000	459940832.000000	459071936.000000	453349120.000000	446973696.000000	444551200.000000	439604480.000000	431089760.000000	429755712.000000	423740288.000000	418104672.000000
3000000000000000000000000000000000000000000000000000000	463185408.000000	462108960.000000	459940832.000000	452885728.000000	452779584.000000	449525376.000000	447502592.000000	440826464.000000	435613216.000000	428134272.000000	422768160.000000	420290080.000000
10000000000000000000000000000000000000000000000000000000	463185408.000000	462108960.000000	459940832.000000	452885728.000000	452779584.000000	449525376.000000	447502592.000000	441176512.000000	436803520.000000	432305088.000000	420660736.000000	414167936.000000
30000000000000000000000000000000000000000000000000000000	463185408.000000	462108960.000000	459940832.000000	452885728.000000	452779584.000000	449525376.000000	447876576.000000	442801824.000000	439784608.000000	432273376.000000	425312576.000000	420586080.000000
100000000000000000000000000000000000000000000000000000000	463185408.000000	461481088.000000	459143776.000000	458902080.000000	458253696.000000	453677280.000000	450885568.000000	445611840.000000	438460928.000000	433177952.000000	420960096.000000	418172992.000000
300000000000000000000000000000000000000000000000000000000	463185408.000000	461481088.000000	459143776.000000	458902080.000000	458253696.000000	453677280.000000	450996672.000000	443609376.000000	439773920.000000	437719776.000000	431474400.000000	422004896.000000
1000000000000000000000000000000000000000000000000000000000	463185408.000000	461481088.000000	459143776.000000	458902080.000000	458253696.000000	453677280.000000	450644160.000000	444885856.000000	439669696.000000	437091104.000000	426742048.000000	423888160.000000
3000000000000000000000000000000000000000000000000000000000	463185408.000000	461481088.000000	459143776.000000	458705120.000000	457185792.000000	454130560.000000	445520000.000000	442062528.000000	436388032.000000	433205184.000000	427349184.000000	418326176.000000
10000000000000000000000000000000000000000000000000000000000	463185408.000000	461481088.000000	459143776.000000	457851616.000000	457315232.000000	449982048.000000	445903808.000000	442738400.000000	435898432.000000	427628608.000000	417077888.000000	416425824.000000
30000000000000000000000000000000000000000000000000000000000	463185408.000000	461481088.000000	459143776.000000	457851616.000000	457315232.000000	449982048.000000	445903808.000000	442546944.000000	437555232.000000	434252800.000000	426624576.000000	418797120.000000
100000000000000000000000000000000000000000000000000000000000	463185408.000000	461481088.000000	459143776.000000	457851616.000000	455407232.000000	453664480.000000	448901024.000000	443684544.000000	436650272.000000	429764544.000000	420136960.000000	416829824.000000
300000000000000000000000000000000000000000000000000000000000	463185408.000000	461481088.000000	458058048.000000	451720128.000000	451393728.000000	449865312.000000	446500256.000000	444433568.000000	439764640.000000	436867232.000000	431096544.000000	419130528.000000
1000000000000000000000000000000000000000000000000000000000000	463185408.000000	461481088.000000	458058048.000000	451720128.000000	451393728.000000	449865312.000000	446500256.000000	444181824.000000	438015232.000000	426894240.000000	421168416.000000	414140192.000000
3000000000000000000000000000000000000000000000000000000000000	463185408.000000	461481088.000000	458058048.000000	451720128.000000	451393728.000000	449889376.000000	446305216.000000	443738496.000000	439642112.000000	435753568.000000	428707392.000000	419181248.000000
10000000000000000000000000000000000000000000000000000000000000	463185408.000000	461481088.000000	458058048.000000	451720128.000000	451393728.000000	449889376.000000	446305216.000000	443738496.000000	439933600.000000	434558304.000000	428755552.000000	419042976.000000
30000000000000000000000000000000000000000000000000000000000000	463185408.000000	461481088.000000	458058048.000000	451720128.000000	451393728.000000	448114496.000000	445900960.000000	443859744.000000	440866304.000000	437386688.000000	428810496.000000	419339296.000000
100000000000000000000000000000000000000000000000000000000000000	463185408.000000	461481088.000000	458058048.000000	451720128.000000	451393728.000000	449889376.000000	446305216.000000	444524704.000000	439808960.000000	429547104.000000	421304960.000000	414230400.000000
300000000000000000000000000000000000000000000000000000000000000	463185408.000000	461481088.000000	458058048.000000	451531680.000000	448547104.000000	445853600.000000	442091488.000000	440652832.000000	435677024.000000	433004032.000000	421137856.000000	418230944.000000
1000000000000000000000000000000000000000000000000000000000000000	463185408.000000	461481088.000000	458058048.000000	451531680.000000	448547104.000000	445775712.000000	441284544.000000	440904576.000000	437177248.000000	433723136.000000	422525152.000000	417785632.000000
3000000000000000000000000000000000000000000000000000000000000000	463185408.000000	461481088.000000	457426848.000000	454237376.000000	453215392.000000	453215392.000000	447125664.000000	443914208.000000	439353536.000000	438758400.000000	430477728.000000	418184128.000000
10000000000000000000000000000000000000000000000000000000000000000	463185408.000000	461481088.000000	457426848.000000	454237376.000000	453215392.000000	453215392.000000	447125664.000000	443914208.000000	439353536.000000	436591872.000000	422076768.000000	417943200.000000
30000000000000000000000000000000000000000000000000000000000000000	463185408.000000	461481088.000000	457426848.000000	454237376.000000	453215392.000000	452345952.000000	450159328.000000	445843840.000000	439159808.000000	434913856.000000	432147584.000000	420046944.000000
100000000000000000000000000000000000000000000000000000000000000000	463185408.000000	461481088.000000	457426848.000000	453835104.000000	449649312.000000	449649312.000000	442649504.000000	439279552.000000	436892320.000000	431913536.000000	424089984.000000	412846048.000000
300000000000000000000000000000000000000000000000000000000000000000	463185408.000000	461481088.000000	457426848.000000	453835104.000000	449649312.000000	449649312.000000	445231584.000000	441231232.000000	429781856.000000	425445632.000000	420567360.000000	412367392.000000
1000000000000000000000000000000000000000000000000000000000000000000	463185408.000000	461481088.000000	457426848.000000	453835104.000000	449649312.000000	449365760.000000	446816864.000000	445558560.000000	442985856.000000	437798400.000000	433944896.000000	424978368.000000
3000000000000000000000000000000000000000000000000000000000000000000	463185408.000000	461481088.000000	457426848.000000	453835104.000000	449649312.000000	449649312.000000	442522848.000000	440329376.000000	433837152.000000	430840064.000000	418896640.000000	416958560.000000
10000000000000000000000000000000000000000000000000000000000000000000	463185408.000000	461481088.000000	457426848.000000	453835104.000000	449649312.000000	449649312.000000	442522848.000000	440329376.000000	433623680.000000	421643584.000000	414312672.000000	413427936.000000
30000000000000000000000000000000000000000000000000000000000000000000	463185408.000000	461481088.000000	457426848.000000	453835104.000000	449649312.000000	449322272.000000	447158848.000000	441403488.000000	438262720.000000	432841920.000000	420575584.000000	415442976.000000
100000000000000000000000000000000000000000000000000000000000000000000	463185408.000000	461481088.000000	457426848.000000	453835104.000000	449649312.000000	449322272.000000	447158848.000000	441403488.000000	438407328.000000	433644672.000000	420595392.000000	417669472.000000
300000000000000000000000000000000000000000000000000000000000000000000	463185408.000000	461481088.000000	457426848.000000	453835104.000000	449649312.000000	449649312.000000	442463040.000000	439780800.000000	433502464.000000	431214944.000000	422018944.000000	418693184.000000
1000000000000000000000000000000000000000000000000000000000000000000000	463185408.000000	461481088.000000	457426848.000000	453835104.000000	449649312.000000	449649312.000000	445231584.000000	440588736.000000	434632704.000000	423529536.000000	413933600.000000	410819072.000000
3000000000000000000000000000000000000000000000000000000000000000000000	463185408.000000	461481088.000000	457426848.000000	453835104.000000	449649312.000000	449649312.000000	444922752.000000	439216192.000000	436838080.000000	431504064.000000	417254592.000000	408144000.000000
10000000000000000000000000000000000000000000000000000000000000000000000	463185408.000000	461481088.000000	457426848.000000	453835104.000000	449649312.000000	449649312.000000	444922752.000000	439216192.000000	436838080.000000	430926752.000000	417304288.000000	412204640.000000
30000000000000000000000000000000000000000000000000000000000000000000000	463185408.000000	461092480.000000	460738144.000000	456333888.000000	456147744.000000	450698304.000000	438153888.000000	435782016.000000	432739648.000000	429504896.000000	424076512.000000	414659072.000000
100000000000000000000000000000000000000000000000000000000000000000000000	463185408.000000	461092480.000000	460738144.000000	456562784.000000	454033920.000000	449238784.000000	445319296.000000	443918368.000000	437425088.000000	434478496.000000	424079680.000000	415991360.000000
300000000000000000000000000000000000000000000000000000000000000000000000	463185408.000000	461092480.000000	460738144.000000	456243136.000000	453694656.000000	450692000.000000	445176864.000000	442664192.000000	439342464.000000	432316288.000000	421371520.000000	416101600.000000
1000000000000000000000000000000000000000000000000000000000000000000000000	463185408.000000	461209664.000000	461092128.000000	454869664.000000	454869664.000000	449223296.000000	446388640.000000	446257760.000000	435825504.000000	426803520.000000	419777568.000000	416901728.000000
3000000000000000000000000000000000000000000000000000000000000000000000000	463185408.000000	461209664.000000	461092128.000000	454869664.000000	454869664.000000	449223296.000000	446388640.000000	446257760.000000	435919136.000000	426757952.000000	415628896.000000	407074144.000000
10000000000000000000000000000000000000000000000000000000000000000000000000	463185408.000000	461209664.000000	460873120.000000	458522400.000000	454947904.000000	451344064.000000	446985056.000000	440946656.000000	432222624.000000	429262208.000000	422699136.000000	415532544.000000
30000000000000000000000000000000000000000000000000000000000000000000000000	463185408.000000	461209664.000000	460873120.000000	458522400.000000	454947904.000000	447830848.000000	443537664.000000	439801216.000000	436882240.000000	432648192.000000	426144192.000000	419520064.000000
100000000000000000000000000000000000000000000000000000000000000000000000000	463185408.000000	461543680.000000	454227712.000000	451785824.000000	449024384.000000	442026848.000000	437645184.000000	432604704.000000	429949888.000000	427816320.000000	417662784.000000	411694336.000000
300000000000000000000000000000000000000000000000000000000000000000000000000	463185408.000000	461258752.000000	458954848.000000	452432288.000000	449560736.000000	445502976.000000	441835936.000000	436559840.000000	430453920.000000	427925088.000000	416486624.000000	411862432.000000
1000000000000000000000000000000000000000000000000000000000000000000000000000	463185408.000000	461258752.000000	458954848.000000	456627296.000000	452350272.000000	450295680.000000	447031520.000000	440217632.000000	434695232.000000	431398880.000000	421600000.000000	414520480.000000
3000000000000000000000000000000000000000000000000000000000000000000000000000	463185408.000000	461258752.000000	458954848.000000	456627296.000000	452350272.000000	450295680.000000	446830912.000000	441488384.000000	438861472.000000	430747904.000000	422804992.000000	413951776.000000
10000000000000000000000000000000000000000000000000000000000000000000000000000	463185408.000000	461258752.000000	458953696.000000	452165856.000000	445690848.000000	444600128.000000	439207392.000000	436988896.000000	433858048.000000	422010816.000000	412440768.000000	406752704.000000
30000000000000000000000000000000000000000000000000000000000000000000000000000	463185408.000000	461092480.000000	459995168.000000	451308256.000000	449372224.000000	444421568.000000	440838912.000000	438816288.000000	435164480.000000	433781728.000000
