# using instance instanzen/Instanz32.inst
flexibility	initial	after 10s	after 20s	after 40s	after 60s	after 2m	after 3.5m	after 5m	after 7.5m	after 10m	after 15min	after 20min

10	297831680.000000	297831776.000000	297831776.000000	297831776.000000	297831776.000000	297831776.000000	297831776.000000	297831776.000000	297831776.000000	297831776.000000	297831776.000000	297831776.000000
30	297831680.000000	297831776.000000	297831776.000000	297831776.000000	297831776.000000	297831776.000000	297831776.000000	297831776.000000	297831776.000000	297831776.000000	297831776.000000	297831776.000000
100	297831680.000000	297831776.000000	297831776.000000	297831776.000000	297831776.000000	297831776.000000	297831776.000000	297831776.000000	297831776.000000	297831776.000000	297831776.000000	297831776.000000
300	297831680.000000	297831776.000000	297831776.000000	297831776.000000	297831776.000000	297831776.000000	297831776.000000	297831776.000000	297831776.000000	297831776.000000	297831776.000000	297831776.000000
1000	297831680.000000	297831776.000000	297831776.000000	297831776.000000	297831776.000000	297831776.000000	297831776.000000	297831776.000000	297831776.000000	297831776.000000	297831776.000000	297831776.000000
3000	297831680.000000	297831776.000000	297831776.000000	297831776.000000	297831776.000000	297831776.000000	297831776.000000	297831776.000000	297831776.000000	297831776.000000	297831776.000000	297831776.000000
10000	297831680.000000	297831776.000000	297831776.000000	297831776.000000	297831776.000000	297831776.000000	297831776.000000	297831776.000000	297831776.000000	297831776.000000	297831776.000000	297831776.000000
30000	297831680.000000	297831776.000000	297831776.000000	297831776.000000	297831776.000000	297831776.000000	297831776.000000	297831776.000000	297831776.000000	297831776.000000	297831776.000000	297831776.000000
100000	297831680.000000	297354560.000000	297090592.000000	296967648.000000	296967648.000000	296967648.000000	296967648.000000	296967648.000000	296967648.000000	296967648.000000	296967648.000000	296967648.000000
300000	297831680.000000	297517280.000000	297199680.000000	297119808.000000	297119808.000000	297119808.000000	297119808.000000	297119808.000000	297119808.000000	297119808.000000	297119808.000000	297119808.000000
1000000	297831680.000000	297831776.000000	297831776.000000	297831776.000000	297831776.000000	297831776.000000	297831776.000000	297831776.000000	297831776.000000	297831776.000000	297831776.000000	297831776.000000
3000000	297831680.000000	297709184.000000	297276352.000000	296739040.000000	296586624.000000	296586624.000000	296586624.000000	296586624.000000	296586624.000000	296586624.000000	296586624.000000	296586624.000000
10000000	297831680.000000	297585632.000000	297068448.000000	296946592.000000	296946592.000000	296946592.000000	296946592.000000	296946592.000000	296923648.000000	296923648.000000	296923648.000000	296923648.000000
30000000	297831680.000000	297831776.000000	297831776.000000	297831776.000000	297831776.000000	297831776.000000	297831776.000000	297831776.000000	297831776.000000	297831776.000000	297831776.000000	297831776.000000
100000000	297831680.000000	297831776.000000	297831776.000000	297831776.000000	297831776.000000	297831776.000000	297831776.000000	297831776.000000	297831776.000000	297831776.000000	297831776.000000	297831776.000000
300000000	297831680.000000	297462496.000000	297290176.000000	296937440.000000	296638880.000000	296303584.000000	296303584.000000	296303584.000000	296303584.000000	296303584.000000	296303584.000000	296303584.000000
1000000000	297831680.000000	297405984.000000	297151936.000000	296497376.000000	296387904.000000	296387904.000000	296387904.000000	296387904.000000	296387904.000000	296387904.000000	296387904.000000	296387904.000000
3000000000	297831680.000000	297831776.000000	297169824.000000	296467296.000000	296370688.000000	296370688.000000	296370688.000000	296370688.000000	296370688.000000	296370688.000000	296370688.000000	296370688.000000
10000000000	297831680.000000	297700448.000000	297617664.000000	296813536.000000	296462336.000000	295870528.000000	295702464.000000	295702464.000000	295702464.000000	295702464.000000	295702464.000000	295702464.000000
30000000000	297831680.000000	297701920.000000	297190240.000000	296734560.000000	296661760.000000	296651712.000000	296651712.000000	296649952.000000	296649952.000000	296649952.000000	296649952.000000	296649952.000000
100000000000	297831680.000000	297378304.000000