# using instance instanzen/Instanz32.inst
time	power

0	1.211120896E9
1	8.63233408E8
2	7.94693632E8
3	7.53757888E8
4	7.30844096E8
5	7.11727168E8
6	6.75828416E8
7	6.544624E8
8	6.38555328E8
9	6.2146016E8
10	6.0736864E8
11	5.96865664E8
12	5.88366656E8
13	5.83275328E8
14	5.7513152E8
15	5.42204736E8
16	5.31803488E8
17	5.21401824E8
19	5.17469632E8
20	5.12976896E8
21	5.0522656E8
22	5.00648416E8
23	4.9992288E8
24	4.97091776E8
25	4.94447872E8
26	4.86534528E8
27	4.75474656E8
28	4.65993824E8
29	4.63727936E8
30	4.59007776E8
31	4.56987648E8
32	4.5669392E8
33	4.50326112E8
34	4.48343936E8
35	4.46680608E8
37	4.46659648E8
38	4.41973056E8
39	4.38372288E8
40	4.3619888E8
41	4.32898336E8
42	4.31799392E8
44	4.30398432E8
45	4.28406208E8
46	4.22990464E8
47	4.22554176E8
48	4.2111936E8
49	4.19102272E8
51	4.18054784E8
52	4.178392E8
53	4.17297248E8
54	4.1568816E8
55	4.12319488E8
56	4.12319488E8
57	4.10532448E8
58	4.0934016E8
60	4.0623152E8
61	4.0560288E8
62	4.0517392E8
63	4.02238048E8
64	4.01348224E8
65	4.00540512E8
66	3.9846816E8
67	3.98358368E8
68	3.97318144E8
69	3.96741632E8
70	3.93865696E8
71	3.93633344E8
73	3.929448E8
74	3.92260288E8
75	3.90999616E8
76	3.90505024E8
77	3.89425536E8
78	3.87629504E8
79	3.86691488E8
80	3.85509696E8
82	3.83424448E8
83	3.83141056E8
84	3.81851808E8
85	3.81420064E8
86	3.81248384E8
87	3.79107744E8
88	3.77894176E8
89	3.76314208E8
90	3.7521664E8
91	3.74483392E8
93	3.74048032E8
94	3.72768192E8
95	3.72007392E8
96	3.71200736E8
97	3.7032784E8
98	3.69065856E8
99	3.67667616E8
100	3.67378336E8
102	3.6717232E8
103	3.66231424E8
104	3.64699872E8
105	3.63799936E8
107	3.62483808E8
108	3.605352E8
109	3.5985808E8
111	3.59356832E8
112	3.57253632E8
113	3.54699488E8
114	3.54699488E8
116	3.53655872E8
117	3.53322304E8
118	3.53119264E8
119	3.52260576E8
120	3.51891104E8
122	3.51261888E8
123	3.49585248E8
124	3.49541472E8
125	3.48923872E8
126	3.48186304E8
127	3.47182464E8
129	3.46980544E8
130	3.46746784E8
131	3.46107232E8
132	3.45926144E8
133	3.44851072E8
135	3.44369856E8
136	3.44294464E8
137	3.43586752E8
138	3.43586752E8
139	3.43392288E8
140	3.42777472E8
141	3.42405984E8
142	3.41496736E8
143	3.39642464E8
144	3.37328288E8
146	3.36096576E8
147	3.35418144E8
148	3.35417056E8
149	3.35321088E8
150	3.35291552E8
151	3.3470912E8
152	3.34420192E8
153	3.33665824E8
155	3.33481216E8
156	3.33481216E8
157	3.33438144E8
158	3.33193312E8
159	3.3280624E8
161	3.32495744E8
162	3.32456224E8
163	3.32110848E8
164	3.32031808E8
165	3.3184304E8
166	3.3136768E8
167	3.31149984E8
169	3.30614016E8
170	3.29913376E8
171	3.29485312E8
172	3.29016928E8
173	3.29016928E8
174	3.28561344E8
175	3.2838224E8
176	3.27534976E8
177	3.26905472E8
178	3.26514656E8
180	3.25973536E8
181	3.2534E8
182	3.24858208E8
183	3.24629664E8
184	3.24629664E8
185	3.24449088E8
186	3.23440736E8
187	3.23292224E8
188	3.2316208E8
189	3.22677824E8
190	3.22641984E8
192	3.22618816E8
193	3.22603712E8
194	3.22395776E8
195	3.22278528E8
196	3.22121632E8
197	3.22022176E8
198	3.21631584E8
199	3.21547424E8
200	3.213672E8
201	3.20996736E8
202	3.20797536E8
203	3.20524064E8
204	3.20482272E8
205	3.20292E8
209	3.20272544E8
210	3.20244064E8
211	3.20244064E8
213	3.20244064E8
216	3.19899552E8
217	3.19891712E8
219	3.19891712E8
220	3.19652768E8
222	3.19571584E8
223	3.19409792E8
225	3.19217152E8
226	3.19051328E8
227	3.1889552E8
228	3.18818048E8
229	3.18762304E8
233	3.18466208E8
235	3.18029216E8
236	3.1789728E8
237	3.17514592E8
239	3.17277856E8
241	3.1709536E8
242	3.1709536E8
245	3.16982848E8
247	3.16920544E8
248	3.16911072E8
250	3.16733472E8
253	3.16355552E8
255	3.16216064E8
257	3.16209056E8
258	3.15684864E8
259	3.15684864E8
260	3.15663264E8
262	3.15590816E8
269	3.15296864E8
271	3.15293216E8
274	3.15176608E8
280	3.15060576E8
282	3.14883744E8
283	3.14883744E8
284	3.14803808E8
286	3.1479936E8
287	3.14354944E8
289	3.14307136E8
290	3.14262304E8
291	3.14244768E8
293	3.14198272E8
295	3.14183168E8
299	3.13817152E8
301	3.137608E8
302	3.13732448E8
304	3.13706336E8
305	3.13701312E8
306	3.13481088E8
309	3.13447264E8
310	3.13447264E8
311	3.13447264E8
312	3.13323936E8
313	3.13317568E8
315	3.13265568E8
316	3.13245664E8
326	3.12988096E8
327	3.12720544E8
329	3.12355936E8
330	3.1233152E8
331	3.12283072E8
332	3.12283072E8
334	3.12244E8
335	3.12244E8
337	3.12117408E8
338	3.12112896E8
339	3.12112896E8
340	3.12112896E8
342	3.12112896E8
343	3.12112896E8
344	3.1203904E8
346	3.1203904E8
347	3.11965056E8
349	3.11957632E8
407	3.1191168E8
412	3.11868064E8
473	3.11804224E8
474	3.11687168E8
480	3.11687168E8
481	3.11669504E8
483	3.11586464E8
484	3.11453632E8
485	3.11453632E8
487	3.11453632E8
488	3.11258368E8
489	3.11127264E8
491	3.10873312E8
492	3.10761248E8
493	3.10183872E8
495	3.10171616E8
496	3.10165984E8
497	3.0997232E8
499	3.09711968E8
500	3.09596032E8
501	3.09413888E8
502	3.09270336E8
504	3.08756E8
505	3.08441632E8
506	3.08367904E8
507	3.08282176E8
510	3.08282176E8
511	3.08038304E8
513	3.07693376E8
514	3.07693376E8
516	3.07512192E8
517	3.07512192E8
518	3.07259488E8
519	3.07259488E8
520	3.07259488E8
523	3.07232768E8
524	3.07095616E8
526	3.07095616E8
527	3.07062624E8
528	3.07038432E8
530	3.07038432E8
532	3.07013024E8
533	3.07013024E8
534	3.07007584E8
539	3.07007584E8
541	3.06416736E8
544	3.06416736E8
545	3.06335808E8
546	3.06335808E8
548	3.06335808E8
549	3.06239168E8
551	3.06131424E8
552	3.06016704E8
553	3.05885248E8
555	3.0587664E8
556	3.0576944E8
558	3.05605312E8
560	3.05605312E8
567	3.05364544E8
568	3.05336448E8
569	3.05336448E8
572	3.05144864E8
573	3.04979616E8
574	3.04822784E8
575	3.04756192E8
577	3.04712672E8
578	3.04534112E8
583	3.04506464E8
584	3.0447136E8
585	3.04391264E8
597	3.0419616E8
600	3.0419616E8
602	3.03937088E8
603	3.0388704E8
604	3.03815904E8
605	3.03729088E8
607	3.03729088E8
608	3.03729088E8
613	3.03706592E8
614	3.03589568E8
615	3.03583712E8
616	3.03528E8
624	3.03528E8
625	3.03528E8
626	3.0335648E8
627	3.03326496E8
629	3.03326496E8
630	3.03326496E8
632	3.03318368E8
633	3.03269376E8
635	3.03269376E8
636	3.03269376E8
637	3.03252288E8
638	3.03252288E8
639	3.03252288E8
641	3.03252288E8
643	3.03252288E8
645	3.0324256E8
648	3.0324096E8
650	3.03232E8
653	3.03232E8
655	3.03232E8
656	3.03232E8
658	3.03232E8
660	3.03232E8
664	3.03232E8
665	3.03232E8
668	3.03232E8
670	3.03232E8
671	3.03232E8
674	3.03232E8
675	3.03232E8
677	3.03232E8
678	3.03232E8
684	3.03232E8
685	3.03232E8
687	3.03232E8
688	3.03232E8
690	3.03232E8
692	3.031968E8
695	3.03189952E8
699	3.03189952E8
702	3.03164032E8
703	3.03150848E8
705	3.03150848E8
706	3.03070688E8
708	3.03070688E8
709	3.03070688E8
711	3.02894144E8
712	3.02829952E8
720	3.02820256E8
721	3.02820256E8
740	3.02810496E8
751	3.02810496E8
779	3.02795488E8
781	3.0278256E8
783	3.0278256E8
785	3.0278256E8
786	3.02773792E8
787	3.02742496E8
788	3.02742496E8
791	3.02721536E8
851	3.02707776E8
857	3.02681632E8
859	3.02680192E8
860	3.0266896E8
874	3.02650208E8
877	3.02645696E8
879	3.02645696E8
880	3.02645696E8
881	3.0252112E8
883	3.02516704E8
944	3.02450912E8
950	3.02406464E8
1020	3.02390944E8
1023	3.02390944E8
1025	3.02376384E8
1026	3.02376384E8
1034	3.02376384E8
1036	3.02376384E8
1038	3.02239584E8
1039	3.02239584E8
1041	3.02239584E8
1049	3.02239584E8
1050	3.02229408E8
1054	3.02229408E8
1057	3.0220448E8
1059	3.0220448E8
1062	3.02195136E8
1063	3.02067328E8
1071	3.01957056E8
1080	3.01913152E8
1081	3.01873504E8
1084	3.01827584E8
1086	3.01779168E8
1087	3.01605376E8
1090	3.01536096E8
1091	3.01266784E8
1092	3.01255936E8
1094	3.01239552E8
1099	3.01217184E8
1120	3.0116848E8
1123	3.0116848E8
1125	3.01141632E8
1127	3.01141632E8
1128	3.0113328E8
1129	3.0113328E8
1138	3.0113328E8
1143	3.01087968E8
1144	3.01087968E8
1146	3.0107216E8
1149	3.0107216E8
1151	3.01035616E8
1152	3.00991136E8
1154	3.00991136E8
1157	3.00991136E8
1159	3.00891872E8
1161	3.00891872E8
1162	3.00876992E8
1164	3.00861536E8
1165	3.00835488E8
1167	3.00782368E8
1169	3.00766624E8
1172	3.00766624E8
1200	3.00743552E8
1202	3.00743552E8
